C:\Users\Jared\IdeaProjects\DungeonCrawler\src\main\java\me\jared\dungeoncrawler\commands\SimpleInjector.java
C:\Users\Jared\IdeaProjects\DungeonCrawler\src\main\java\me\jared\dungeoncrawler\commands\CommandContext.java
C:\Users\Jared\IdeaProjects\DungeonCrawler\src\main\java\me\jared\dungeoncrawler\Strategies.java
C:\Users\Jared\IdeaProjects\DungeonCrawler\src\main\java\me\jared\dungeoncrawler\Map.java
C:\Users\Jared\IdeaProjects\DungeonCrawler\src\main\java\me\jared\dungeoncrawler\logging\Log.java
C:\Users\Jared\IdeaProjects\DungeonCrawler\src\main\java\me\jared\dungeoncrawler\CellType.java
C:\Users\Jared\IdeaProjects\DungeonCrawler\src\main\java\me\jared\dungeoncrawler\Bounds.java
C:\Users\Jared\IdeaProjects\DungeonCrawler\src\main\java\me\jared\dungeoncrawler\Cell.java
C:\Users\Jared\IdeaProjects\DungeonCrawler\src\main\java\me\jared\dungeoncrawler\states\InitializeState.java
C:\Users\Jared\IdeaProjects\DungeonCrawler\src\main\java\me\jared\dungeoncrawler\CellUtil.java
C:\Users\Jared\IdeaProjects\DungeonCrawler\src\main\java\me\jared\dungeoncrawler\delaunay\DelaunayTriangulation.java
C:\Users\Jared\IdeaProjects\DungeonCrawler\src\main\java\me\jared\dungeoncrawler\commands\Command.java
C:\Users\Jared\IdeaProjects\DungeonCrawler\src\main\java\me\jared\dungeoncrawler\commands\CommandException.java
C:\Users\Jared\IdeaProjects\DungeonCrawler\src\main\java\me\jared\dungeoncrawler\Generator.java
C:\Users\Jared\IdeaProjects\DungeonCrawler\src\main\java\me\jared\dungeoncrawler\delaunay\DT_Point.java
C:\Users\Jared\IdeaProjects\DungeonCrawler\src\main\java\me\jared\dungeoncrawler\CellDistanceSorter.java
C:\Users\Jared\IdeaProjects\DungeonCrawler\src\main\java\me\jared\dungeoncrawler\delaunay\DT_Triangle.java
C:\Users\Jared\IdeaProjects\DungeonCrawler\src\main\java\me\jared\dungeoncrawler\states\GenerateCellsState.java
C:\Users\Jared\IdeaProjects\DungeonCrawler\src\main\java\me\jared\dungeoncrawler\commands\Injector.java
C:\Users\Jared\IdeaProjects\DungeonCrawler\src\main\java\me\jared\dungeoncrawler\Main.java
C:\Users\Jared\IdeaProjects\DungeonCrawler\src\main\java\me\jared\dungeoncrawler\XORShiftRandom.java
C:\Users\Jared\IdeaProjects\DungeonCrawler\src\main\java\me\jared\dungeoncrawler\commands\CommandManager.java
C:\Users\Jared\IdeaProjects\DungeonCrawler\src\main\java\me\jared\dungeoncrawler\Commands.java
C:\Users\Jared\IdeaProjects\DungeonCrawler\src\main\java\me\jared\dungeoncrawler\State.java
C:\Users\Jared\IdeaProjects\DungeonCrawler\src\main\java\me\jared\dungeoncrawler\DisjointSetForest.java
C:\Users\Jared\IdeaProjects\DungeonCrawler\src\main\java\me\jared\dungeoncrawler\GenerationContext.java
C:\Users\Jared\IdeaProjects\DungeonCrawler\src\main\java\me\jared\dungeoncrawler\CellAreaSorter.java
C:\Users\Jared\IdeaProjects\DungeonCrawler\src\main\java\me\jared\dungeoncrawler\EdgeList.java
C:\Users\Jared\IdeaProjects\DungeonCrawler\src\main\java\me\jared\dungeoncrawler\commands\CommandInfo.java
C:\Users\Jared\IdeaProjects\DungeonCrawler\src\main\java\me\jared\dungeoncrawler\delaunay\DT_Circle.java
C:\Users\Jared\IdeaProjects\DungeonCrawler\src\main\java\me\jared\dungeoncrawler\commands\CommandClass.java
C:\Users\Jared\IdeaProjects\DungeonCrawler\src\main\java\me\jared\dungeoncrawler\delaunay\DT_BoundingBox.java
C:\Users\Jared\IdeaProjects\DungeonCrawler\src\main\java\me\jared\dungeoncrawler\delaunay\DT_GridIndex.java
C:\Users\Jared\IdeaProjects\DungeonCrawler\src\main\java\me\jared\dungeoncrawler\commands\NestedCommand.java
C:\Users\Jared\IdeaProjects\DungeonCrawler\src\main\java\me\jared\dungeoncrawler\RoomConnection.java
C:\Users\Jared\IdeaProjects\DungeonCrawler\src\main\java\me\jared\dungeoncrawler\commands\ConsoleCommand.java
